[
  {"x":2,"y":5,"city":1,"r":4,"time":"2015/01/02","rank":1},
  {"x":5,"y":15,"city":2,"r":7,"time":"2015/01/02","rank":1},
  {"x":6,"y":7,"city":3,"r":10,"time":"2015/01/02","rank":1},
  {"x":7,"y":9,"city":4,"r":4,"time":"2015/01/02","rank":1},
  {"x":8,"y":10,"city":5,"r":4,"time":"2015/01/02","rank":1},
  {"x":9,"y":2,"city":6,"r":4,"time":"2015/01/02","rank":1},
  {"x":10,"y":8,"city":7,"r":9,"time":"2015/01/02","rank":1},
  {"x":12,"y":20,"city":8,"r":15,"time":"2015/01/02","rank":1},
  {"x":18,"y":13,"city":9,"r":20,"time":"2015/01/02","rank":1},
  {"x":15,"y":12,"city":10,"r":4,"time":"2015/01/02","rank":1},
  {"x":19,"y":19,"city":11,"r":17,"time":"2015/01/02","rank":1},
  {"x":20,"y":22,"city":12,"r":8,"time":"2015/01/02","rank":1},
  {"x":23,"y":30,"city":13,"r":4,"time":"2015/01/02","rank":1},
  {"x":24,"y":40,"city":14,"r":12,"time":"2015/01/02","rank":1},
  {"x":25,"y":29,"city":15,"r":7,"time":"2015/01/02","rank":1},
  {"x":27,"y":22,"city":16,"r":19,"time":"2015/01/02","rank":1},
  {"x":30,"y":35,"city":17,"r":4,"time":"2015/01/02","rank":1},
  {"x":3,"y":15,"city":1,"r":4,"time":"2015/01/03","rank":2},
  {"x":5,"y":5,"city":2,"r":7,"time":"2015/01/03","rank":2},
  {"x":16,"y":17,"city":3,"r":10,"time":"2015/01/03","rank":2},
  {"x":5,"y":9,"city":4,"r":4,"time":"2015/01/03","rank":2},
  {"x":10,"y":12,"city":5,"r":4,"time":"2015/01/03","rank":2},
  {"x":13,"y":2,"city":6,"r":4,"time":"2015/01/03","rank":2},
  {"x":10,"y":8,"city":7,"r":9,"time":"2015/01/03","rank":2},
  {"x":12,"y":20,"city":8,"r":15,"time":"2015/01/03","rank":2},
  {"x":18,"y":13,"city":9,"r":20,"time":"2015/01/03","rank":2},
  {"x":15,"y":12,"city":10,"r":4,"time":"2015/01/03","rank":2},
  {"x":19,"y":19,"city":11,"r":17,"time":"2015/01/03","rank":2},
  {"x":20,"y":22,"city":12,"r":8,"time":"2015/01/03","rank":2},
  {"x":23,"y":30,"city":13,"r":4,"time":"2015/01/03","rank":2},
  {"x":24,"y":40,"city":14,"r":12,"time":"2015/01/03","rank":2},
  {"x":25,"y":29,"city":15,"r":7,"time":"2015/01/03","rank":2},
  {"x":27,"y":22,"city":16,"r":19,"time":"2015/01/03","rank":2},
  {"x":30,"y":35,"city":17,"r":4,"time":"2015/01/03","rank":2},
  {"x":19,"y":5,"city":1,"r":4,"time":"2015/01/04","rank":3},
  {"x":2,"y":15,"city":2,"r":7,"time":"2015/01/04","rank":3},
  {"x":2,"y":7,"city":3,"r":10,"time":"2015/01/04","rank":3},
  {"x":4,"y":9,"city":4,"r":4,"time":"2015/01/04","rank":3},
  {"x":19,"y":10,"city":5,"r":4,"time":"2015/01/04","rank":3},
  {"x":9,"y":2,"city":6,"r":6,"time":"2015/01/04","rank":3},
  {"x":10,"y":8,"city":7,"r":19,"time":"2015/01/04","rank":3},
  {"x":12,"y":20,"city":8,"r":15,"time":"2015/01/04","rank":3},
  {"x":18,"y":13,"city":9,"r":23,"time":"2015/01/04","rank":3},
  {"x":15,"y":12,"city":10,"r":4,"time":"2015/01/04","rank":3},
  {"x":19,"y":19,"city":11,"r":17,"time":"2015/01/04","rank":3},
  {"x":20,"y":22,"city":12,"r":28,"time":"2015/01/04","rank":3},
  {"x":23,"y":30,"city":13,"r":4,"time":"2015/01/04","rank":3},
  {"x":24,"y":40,"city":14,"r":42,"time":"2015/01/04","rank":3},
  {"x":12,"y":29,"city":15,"r":7,"time":"2015/01/04","rank":3},
  {"x":22,"y":22,"city":16,"r":19,"time":"2015/01/04","rank":3},
  {"x":4,"y":30,"city":17,"r":4,"time":"2015/01/05","rank":4},
  {"x":21,"y":8,"city":1,"r":4,"time":"2015/01/05","rank":4},
  {"x":3,"y":15,"city":2,"r":7,"time":"2015/01/05","rank":4},
  {"x":3,"y":10,"city":3,"r":10,"time":"2015/01/05","rank":4},
  {"x":7,"y":12,"city":4,"r":4,"time":"2015/01/05","rank":4},
  {"x":22,"y":19,"city":5,"r":4,"time":"2015/01/05","rank":4},
  {"x":11,"y":5,"city":6,"r":6,"time":"2015/01/05","rank":4},
  {"x":13,"y":12,"city":7,"r":19,"time":"2015/01/05","rank":4},
  {"x":15,"y":25,"city":8,"r":15,"time":"2015/01/05","rank":4},
  {"x":20,"y":19,"city":9,"r":23,"time":"2015/01/05","rank":4},
  {"x":20,"y":18,"city":10,"r":4,"time":"2015/01/05","rank":4},
  {"x":21,"y":24,"city":11,"r":17,"time":"2015/01/05","rank":4},
  {"x":28,"y":29,"city":12,"r":28,"time":"2015/01/05","rank":4},
  {"x":28,"y":37,"city":13,"r":4,"time":"2015/01/05","rank":4},
  {"x":29,"y":40,"city":14,"r":42,"time":"2015/01/05","rank":4},
  {"x":19,"y":33,"city":15,"r":7,"time":"2015/01/05","rank":4},
  {"x":25,"y":29,"city":16,"r":19,"time":"2015/01/05","rank":4},
  {"x":8,"y":35,"city":17,"r":4,"time":"2015/01/05","rank":4},
  {"x":6,"y":32,"city":17,"r":4,"time":"2015/01/06","rank":5},
  {"x":21,"y":10,"city":1,"r":5,"time":"2015/01/06","rank":5},
  {"x":5,"y":17,"city":2,"r":7,"time":"2015/01/06","rank":5},
  {"x":3,"y":13,"city":3,"r":10,"time":"2015/01/06","rank":5},
  {"x":7,"y":15,"city":4,"r":4,"time":"2015/01/06","rank":5},
  {"x":22,"y":23,"city":5,"r":4,"time":"2015/01/06","rank":5},
  {"x":11,"y":7,"city":6,"r":6,"time":"2015/01/06","rank":5},
  {"x":13,"y":18,"city":7,"r":19,"time":"2015/01/06","rank":5},
  {"x":15,"y":29,"city":8,"r":15,"time":"2015/01/06","rank":5},
  {"x":20,"y":19,"city":9,"r":23,"time":"2015/01/06","rank":5},
  {"x":20,"y":18,"city":10,"r":4,"time":"2015/01/06","rank":5},
  {"x":21,"y":24,"city":11,"r":17,"time":"2015/01/06","rank":5},
  {"x":28,"y":29,"city":12,"r":28,"time":"2015/01/06","rank":5},
  {"x":28,"y":37,"city":13,"r":4,"time":"2015/01/06","rank":5},
  {"x":29,"y":40,"city":14,"r":42,"time":"2015/01/06","rank":5},
  {"x":19,"y":33,"city":15,"r":7,"time":"2015/01/06","rank":5},
  {"x":25,"y":29,"city":16,"r":19,"time":"2015/01/06","rank":5},
  {"x":8,"y":35,"city":17,"r":4,"time":"2015/01/06","rank":5}

]

